{
    "parent":"builtin/generated",
    "textures": {
        "layer0":"capsule:items/capsule_activated"
    },
    "display": {
        "thirdperson": {
            "rotation": [ 180, 90, 280 ],
            "translation": [ 0, 1, -3 ],
            "scale": [ 0.4, 0.4, 0.4 ]
        },
        "firstperson": {
            "rotation": [ 0, -135, 25 ],
            "translation": [ 0, 4, 2 ],
            "scale": [ 0.8, 0.8, 0.8 ]
        }
    }
}